$MeshFormat
2.2 0 8
$EndMeshFormat
$Nodes
9
1 0 0 0
2 0 1 0
3 1 1 0
4 1 0 0
5 1 0.4999999999986921 0
6 0.5000000000020595 1 0
7 0 0.5000000000020595 0
8 0.4999999999986921 0 0
9 0.5000000000003758 0.5000000000003758 0
$EndNodes
$Elements
4
1 3 2 0 6 1 8 9 7
2 3 2 0 6 7 9 6 2
3 3 2 0 6 8 4 5 9
4 3 2 0 6 9 5 3 6
$EndElements
